{
    "db": "mongodb://localhost/recrootly-travis",
    "port": 3001,
    "redisDb" : {
      "host": "localhost",
      "port": 6379,
      "password": null,
      "namespace": "recrootly-dev"
    },
    "app": {
        "name": "skilent - Candidate Tracking System"
    },
    "linkedin": {
        "clientID": "API_KEY",
        "clientSecret": "SECRET_KEY",
        "callbackURL": "http://localhost:3000/auth/linkedin/callback"
    },    
    "facebook": {
        "clientID": "APP_ID",
        "clientSecret": "APP_SECRET",
        "callbackURL": "http://localhost:3000/auth/facebook/callback"
    },
    "twitter": {
        "clientID": "CONSUMER_KEY",
        "clientSecret": "CONSUMER_SECRET",
        "callbackURL": "http://localhost:3000/auth/twitter/callback"
    },
    "github": {
        "clientID": "APP_ID",
        "clientSecret": "APP_SECRET",
        "callbackURL": "http://localhost:3000/auth/github/callback"
    },
    "google": {
        "clientID": "APP_ID",
        "clientSecret": "APP_SECRET",
        "callbackURL": "http://localhost:3000/auth/google/callback"
    }
}